<?xml version="1.0" standalone="no"?>
<!DOCTYPE svg PUBLIC "-//W3C//DTD SVG 20010904//EN"
 "http://www.w3.org/TR/2001/REC-SVG-20010904/DTD/svg10.dtd">
<svg version="1.0" xmlns="http://www.w3.org/2000/svg"
 width="700.000000pt" height="700.000000pt" viewBox="0 0 700.000000 700.000000"
 preserveAspectRatio="xMidYMid meet">
<metadata>
Created by potrace 1.14, written by Peter Selinger 2001-2017
</metadata>
<g transform="translate(0.000000,700.000000) scale(0.100000,-0.100000)"
fill="#000000" stroke="none">
<path d="M3039 6749 c-211 -138 -430 -281 -487 -317 -56 -37 -158 -103 -225
-147 -68 -44 -223 -145 -345 -225 -122 -80 -291 -190 -375 -245 -84 -55 -328
-214 -542 -353 -215 -140 -451 -293 -525 -342 -74 -49 -226 -148 -338 -221
-143 -93 -202 -136 -200 -148 3 -14 23 -16 153 -17 143 -1 152 1 195 25 45 25
133 82 490 315 102 67 292 191 423 276 233 152 545 355 800 522 229 149 359
234 542 353 99 64 331 215 515 335 184 121 340 220 346 220 7 0 82 -46 168
-102 371 -245 599 -394 630 -413 28 -17 286 -185 1318 -860 59 -38 174 -113
255 -166 82 -53 288 -188 458 -299 l310 -203 163 -2 c158 -1 198 4 177 23 -6
5 -82 56 -170 114 -88 57 -319 207 -512 333 -194 127 -391 255 -438 285 -121
78 -1209 787 -1465 956 -118 77 -249 162 -290 189 -41 27 -147 96 -235 153
-88 58 -197 129 -242 158 -133 88 -101 99 -554 -197z"/>
<path d="M2937 4948 c-32 -17 -83 -56 -113 -87 -104 -104 -384 -514 -384 -561
0 -17 -7 -30 -16 -34 -9 -4 -14 -9 -11 -12 3 -3 -45 -108 -108 -232 -113 -227
-162 -345 -217 -522 -56 -182 -121 -462 -163 -695 -14 -81 -19 -138 -18 -224
1 -104 15 -137 67 -154 48 -16 72 -2 104 61 16 31 77 125 136 208 58 83 106
155 106 159 0 4 26 33 58 64 32 31 72 74 89 96 126 165 217 270 245 286 13 7
8 -11 -18 -79 -36 -90 -55 -133 -64 -142 -10 -10 -31 -48 -79 -145 -52 -105
-120 -326 -126 -405 -4 -52 13 -140 26 -140 5 0 9 -8 9 -19 0 -21 82 -101 129
-125 50 -26 115 -23 155 8 51 38 116 118 191 236 38 58 102 157 143 220 69
104 132 224 132 250 0 17 -37 11 -51 -9 -46 -63 -229 -271 -332 -378 -94 -96
-142 -128 -158 -102 -12 20 -4 86 20 164 23 72 27 110 11 100 -5 -3 1 22 14
57 34 90 48 121 166 373 53 113 62 179 31 228 -60 97 -153 91 -264 -18 -63
-62 -219 -245 -340 -400 -26 -33 -54 -67 -62 -76 -8 -9 -15 -18 -15 -22 0 -3
-23 -38 -51 -79 -28 -40 -48 -64 -45 -53 3 11 17 61 31 110 15 50 49 160 77
245 l50 154 134 136 c73 74 150 158 171 185 21 28 68 80 104 116 87 86 203
264 306 468 127 252 194 481 186 641 -3 46 -11 97 -19 112 -38 74 -139 89
-237 36z m142 -127 c18 -12 16 -83 -4 -163 -36 -138 -101 -291 -209 -491 -25
-46 -42 -88 -38 -92 4 -5 1 -5 -6 -1 -8 5 -16 -3 -23 -21 -6 -15 -10 -30 -9
-32 1 -2 -5 -8 -14 -13 -9 -5 -14 -13 -11 -19 4 -5 2 -9 -3 -9 -5 0 -17 -12
-27 -26 -12 -18 -13 -24 -4 -19 8 4 3 -3 -11 -15 -14 -12 -18 -18 -10 -14 13
7 13 6 0 -11 -8 -11 -26 -30 -40 -43 -14 -14 -16 -18 -5 -11 19 14 19 14 0
-13 -11 -15 -23 -28 -27 -28 -5 0 -8 -5 -8 -12 0 -6 -15 -25 -32 -41 -18 -16
-24 -23 -13 -16 11 8 -10 -22 -45 -65 -85 -103 -152 -178 -156 -173 -2 2 18
59 45 128 27 69 58 155 70 192 36 119 376 775 484 937 27 41 64 79 77 80 3 0
11 -4 19 -9z m-379 -518 c-100 -203 -196 -399 -212 -438 -17 -38 -40 -92 -53
-120 -12 -27 -42 -103 -66 -167 -24 -65 -47 -118 -50 -118 -7 0 20 101 49 180
11 30 35 96 53 145 54 147 442 905 457 891 3 -3 -77 -171 -178 -373z"/>
<path d="M1535 4419 c-59 -9 -90 -24 -154 -73 -99 -76 -167 -157 -346 -409
-30 -43 -55 -82 -55 -88 0 -14 -56 -100 -61 -95 -14 14 -198 -329 -237 -439
-11 -33 -46 -131 -76 -217 -64 -180 -92 -286 -102 -378 -3 -36 -8 -74 -11 -85
-2 -11 -6 -71 -8 -134 -3 -95 -1 -121 16 -165 43 -110 122 -202 241 -282 187
-125 283 -127 441 -8 162 123 312 300 388 459 78 162 111 388 51 356 -10 -5
-24 -22 -32 -38 -80 -156 -306 -428 -454 -546 -120 -94 -278 -144 -345 -107
-25 13 -65 74 -75 114 -13 52 -7 207 10 286 3 14 8 36 10 50 23 125 205 626
305 836 125 266 350 601 457 683 26 20 55 45 65 56 10 11 16 15 13 9 -3 -6 9
-4 28 5 19 9 32 18 31 21 -2 3 14 5 36 5 21 0 39 -4 39 -8 0 -5 5 -5 12 -1 8
5 9 2 5 -9 -3 -10 -3 -17 1 -17 19 0 10 -84 -18 -163 -36 -103 -85 -209 -95
-205 -4 2 -28 -36 -54 -83 -25 -48 -52 -94 -60 -103 -25 -30 0 -41 61 -27 114
26 241 123 284 216 126 276 -59 625 -311 584z m-278 -486 c-89 -123 -343 -601
-417 -785 -13 -32 -25 -56 -27 -54 -3 3 56 166 76 211 6 11 28 63 51 115 82
185 197 381 301 508 53 65 62 68 16 5z"/>
<path d="M5225 4337 c-16 -5 -42 -18 -56 -28 -31 -22 -95 -114 -131 -189 -15
-30 -41 -70 -57 -89 -30 -33 -89 -147 -146 -283 -17 -41 -34 -69 -44 -69 -31
-3 -97 -7 -216 -13 -269 -14 -308 -19 -380 -46 -97 -37 175 -70 385 -47 129
14 175 13 173 -3 -2 -18 -80 -232 -123 -340 -17 -41 -30 -84 -30 -94 0 -11
-11 -38 -25 -61 -28 -49 -107 -273 -126 -360 -7 -33 -13 -62 -14 -65 -1 -5
-13 -63 -21 -100 -1 -8 -14 -62 -28 -120 -31 -124 -49 -274 -40 -333 14 -87
56 -141 138 -178 109 -48 160 -4 480 420 76 101 169 230 206 287 38 57 88 129
113 161 73 96 93 148 65 171 -23 18 -54 -5 -103 -75 -43 -60 -321 -420 -335
-433 -3 -3 -23 -27 -45 -55 -64 -80 -86 -105 -160 -184 -38 -41 -63 -70 -55
-66 13 8 13 6 2 -7 -7 -9 -26 -21 -43 -27 -24 -8 -30 -7 -38 8 -9 17 -8 101 3
146 50 222 154 558 243 784 18 47 31 87 28 89 -2 2 3 11 11 20 9 8 13 23 11
34 -3 10 -2 16 2 13 8 -4 119 251 127 290 7 34 34 84 52 94 10 5 57 7 105 5
63 -4 95 -1 115 9 16 7 35 13 43 11 76 -11 98 -7 130 26 25 25 28 33 19 50 -8
15 -15 18 -28 11 -23 -12 -331 -21 -337 -10 -6 8 41 109 55 119 4 3 23 39 44
80 72 148 108 204 121 192 4 -4 5 1 2 11 -4 10 -3 16 2 13 10 -6 38 29 90 111
38 60 35 85 -10 109 -37 19 -133 25 -174 11z m-92 -462 c-3 -9 -8 -14 -10 -11
-3 3 -2 9 2 15 9 16 15 13 8 -4z m-20 -40 c-3 -9 -8 -14 -10 -11 -3 3 -2 9 2
15 9 16 15 13 8 -4z m-20 -40 c-3 -9 -8 -14 -10 -11 -3 3 -2 9 2 15 9 16 15
13 8 -4z m-26 -57 c-18 -44 -56 -115 -57 -107 0 10 61 139 66 139 2 0 -2 -15
-9 -32z m-71 -155 c-8 -15 -15 -25 -16 -21 0 12 23 58 27 54 3 -2 -2 -17 -11
-33z m-23 -48 c-3 -9 -8 -14 -10 -11 -3 3 -2 9 2 15 9 16 15 13 8 -4z m-20
-50 c-3 -9 -8 -14 -10 -11 -3 3 -2 9 2 15 9 16 15 13 8 -4z m-20 -40 c-3 -9
-8 -14 -10 -11 -3 3 -2 9 2 15 9 16 15 13 8 -4z m-42 -98 c-10 -9 -11 -8 -5 6
3 10 9 15 12 12 3 -3 0 -11 -7 -18z m-29 -74 c-20 -37 -258 -697 -267 -741 -4
-18 -9 -31 -12 -28 -14 14 136 473 197 601 10 22 33 75 50 118 18 43 34 76 37
73 3 -2 0 -13 -5 -23z"/>
<path d="M3545 3303 c-16 -8 -39 -23 -50 -33 -11 -10 -35 -25 -53 -34 -71 -36
-177 -209 -236 -386 -70 -211 -73 -350 -11 -450 12 -19 29 -41 38 -48 13 -11
74 -17 146 -13 23 2 194 182 242 256 25 39 69 107 98 153 56 87 76 103 59 50
-85 -271 -63 -485 60 -568 80 -55 172 -19 279 108 55 66 187 258 204 297 5 11
40 80 79 153 63 120 82 177 64 195 -16 15 -45 -20 -162 -196 -180 -271 -196
-292 -269 -364 -59 -59 -95 -46 -87 32 9 85 15 128 18 134 5 8 18 96 21 136 2
44 32 128 81 232 55 115 57 152 11 198 -19 19 -46 37 -61 41 -41 10 -109 -21
-155 -72 l-41 -44 -11 27 c-5 16 -17 47 -25 69 -44 117 -151 174 -239 127z
m146 -114 c12 -12 18 -27 15 -36 -4 -9 3 -49 15 -90 11 -41 18 -85 15 -98 -7
-26 -162 -247 -248 -352 -67 -82 -97 -108 -112 -93 -10 10 -10 67 -1 110 3 14
7 43 9 65 2 21 9 41 15 43 6 2 9 8 6 12 -8 13 25 111 35 105 5 -3 6 3 3 14 -3
11 4 27 19 41 12 13 17 20 11 16 -7 -4 -13 -2 -13 3 0 6 5 11 11 11 5 0 8 4 5
9 -3 5 1 12 10 15 8 3 12 10 9 16 -9 14 4 52 16 45 5 -4 9 -1 9 5 0 40 62 135
104 161 39 24 41 24 67 -2z m33 -65 c3 -8 2 -12 -4 -9 -6 3 -10 10 -10 16 0
14 7 11 14 -7z"/>
<path d="M5734 3302 c-138 -76 -203 -147 -277 -295 -140 -284 -156 -550 -40
-648 25 -21 37 -24 96 -21 l67 4 83 83 c88 89 118 127 234 305 81 126 85 123
43 -30 -29 -104 -36 -230 -17 -303 40 -153 138 -224 244 -177 101 45 269 266
394 522 32 64 62 119 67 122 14 8 35 93 28 111 -12 33 -47 -8 -190 -223 -80
-119 -157 -230 -171 -247 -15 -16 -36 -43 -48 -58 -33 -42 -86 -72 -100 -58
-21 21 -15 117 17 264 8 38 13 74 10 81 -6 17 39 142 87 241 22 43 39 91 39
105 0 39 -36 90 -76 106 -60 25 -119 2 -192 -77 l-28 -30 -17 55 c-47 149
-157 222 -253 168z m146 -114 c13 -14 18 -29 14 -41 -3 -11 4 -55 16 -98 l23
-79 -63 -93 c-92 -134 -199 -275 -247 -326 -35 -36 -45 -42 -57 -32 -17 15
-13 91 9 156 6 16 5 17 -4 5 -6 -9 -11 -10 -11 -3 0 6 7 18 15 26 8 8 12 17 9
20 -9 8 26 118 35 113 4 -3 6 5 4 19 -4 16 2 29 16 41 12 10 21 23 21 29 0 5
-5 3 -10 -5 -15 -24 -12 -4 7 35 9 19 21 35 26 35 5 0 7 7 3 15 -3 8 2 18 10
23 8 5 16 18 17 30 1 12 5 22 9 22 4 0 8 6 8 13 0 23 63 94 95 107 29 13 32
12 55 -12z"/>
<path d="M5666 2953 c-6 -14 -5 -15 5 -6 7 7 10 15 7 18 -3 3 -9 -2 -12 -12z"/>
<path d="M5633 2875 c-3 -9 -3 -18 -1 -21 3 -3 8 4 11 16 6 23 -1 27 -10 5z"/>
<path d="M2318 1000 c-25 -26 -29 -36 -24 -62 8 -43 30 -65 71 -72 93 -18 148
82 80 142 -39 33 -89 30 -127 -8z m102 -25 c17 -20 5 -62 -20 -70 -44 -14 -80
41 -48 73 17 17 53 15 68 -3z"/>
<path d="M2770 992 c0 -3 26 -30 58 -60 84 -81 123 -78 215 16 l48 49 -51 0
c-45 1 -56 -3 -81 -30 l-29 -30 -31 29 c-24 23 -40 29 -80 30 -27 1 -49 -1
-49 -4z"/>
<path d="M1638 832 c-14 -3 -16 -39 -16 -300 l0 -297 26 -5 c15 -3 43 -3 64
-2 l38 4 -2 107 -1 106 49 3 49 2 55 -107 c30 -60 56 -110 57 -112 4 -6 124
-4 130 2 2 3 -23 57 -56 120 -34 62 -61 118 -61 124 0 5 11 15 24 22 69 38 97
151 57 235 -18 36 -33 50 -75 71 -48 23 -65 26 -188 28 -74 1 -142 1 -150 -1z
m276 -124 c39 -35 42 -90 6 -128 -26 -28 -33 -30 -99 -30 -75 0 -73 -2 -73 55
0 14 0 48 1 75 l1 50 69 0 c58 0 74 -4 95 -22z"/>
<path d="M2170 832 c-15 -5 -13 -424 2 -474 23 -77 95 -128 193 -135 111 -9
192 29 234 110 24 47 25 55 26 263 0 118 -2 219 -6 225 -7 11 -105 17 -115 6
-3 -3 -5 -95 -5 -204 0 -109 -4 -215 -10 -235 -15 -59 -89 -86 -152 -57 -46
21 -51 45 -53 277 -1 119 -2 219 -3 222 -1 6 -95 7 -111 2z"/>
<path d="M2729 830 c-22 -4 -25 -11 -26 -52 l-2 -47 148 -3 148 -3 -148 -214
c-120 -172 -149 -220 -149 -247 0 -30 3 -34 28 -35 111 -2 425 1 429 4 2 3 5
18 5 33 1 66 11 62 -148 62 -80 0 -147 2 -149 3 -2 2 29 50 68 106 183 261
222 323 224 358 2 33 0 35 -30 35 -292 4 -377 4 -398 0z"/>
<path d="M3278 832 l-38 -3 0 -300 c0 -230 3 -299 13 -300 73 -4 377 0 386 5
6 4 11 27 11 51 l0 43 -134 0 c-74 0 -139 2 -143 5 -6 4 -9 111 -4 150 1 4 54
7 119 7 l118 0 0 48 -1 47 -110 2 c-60 2 -115 5 -120 7 -6 2 -10 32 -10 67 l1
64 140 3 141 3 0 49 1 50 -47 1 c-25 0 -100 1 -166 2 -66 1 -137 1 -157 -1z"/>
<path d="M3730 832 c-6 -2 -10 -113 -10 -303 l0 -299 35 -1 c19 -1 47 -1 63
-2 l27 -1 0 192 c0 106 2 192 5 192 3 0 54 -80 113 -177 59 -98 111 -184 116
-192 9 -13 115 -20 127 -8 4 4 8 395 5 552 l-1 50 -61 -5 -61 -5 1 -195 c1
-136 -2 -190 -9 -180 -6 8 -60 97 -121 198 -61 100 -114 182 -118 183 -20 3
-103 3 -111 1z"/>
<path d="M4348 832 l-27 -3 0 -299 c-1 -335 -8 -308 79 -302 l47 4 0 83 c0 73
3 87 24 113 13 17 29 31 36 31 6 1 44 -51 84 -114 61 -97 76 -115 98 -116 26
-1 227 0 247 1 6 0 19 27 29 60 l18 60 112 0 112 0 17 -60 c17 -58 18 -60 52
-61 44 -1 82 -1 93 0 4 1 -42 135 -104 299 l-111 297 -60 3 -60 3 -37 -103
c-101 -274 -182 -488 -187 -488 -5 0 -190 280 -204 310 -7 15 11 44 94 147
l102 128 -53 5 c-89 8 -95 5 -197 -131 -52 -68 -97 -125 -101 -127 -3 -1 -5
56 -4 127 l1 129 -36 4 c-21 1 -49 2 -64 0z m786 -272 c20 -58 36 -105 36
-105 0 0 -34 -1 -75 -1 -41 0 -75 1 -75 2 0 1 16 48 35 105 19 57 35 106 35
108 0 14 12 -16 44 -109z"/>
</g>
</svg>
